<mxfile host="app.diagrams.net" modified="2023-11-13T20:56:39.349Z" agent="Mozilla/5.0 (X11; Ubuntu; Linux x86_64; rv:109.0) Gecko/20100101 Firefox/119.0" etag="ywgN46eGju330eT4HGip" version="22.1.0" type="device">
  <diagram name="Page-1" id="ttVfLdOc_QTkbqX2W6dz">
    <mxGraphModel dx="1374" dy="795" grid="1" gridSize="10" guides="1" tooltips="1" connect="1" arrows="1" fold="1" page="1" pageScale="1" pageWidth="850" pageHeight="1100" math="0" shadow="0">
      <root>
        <mxCell id="0" />
        <mxCell id="1" parent="0" />
        <mxCell id="sPh4NylILdrR-eP8HBFg-1" value="&lt;div&gt;Igrac&lt;/div&gt;&lt;div&gt;&lt;br&gt;&lt;/div&gt;" style="shape=umlActor;verticalLabelPosition=bottom;verticalAlign=top;html=1;outlineConnect=0;" vertex="1" parent="1">
          <mxGeometry x="20" y="250" width="50" height="110" as="geometry" />
        </mxCell>
        <mxCell id="sPh4NylILdrR-eP8HBFg-3" value="&lt;div&gt;Zapocinjanje igre&lt;/div&gt;" style="ellipse;whiteSpace=wrap;html=1;" vertex="1" parent="1">
          <mxGeometry x="425" y="130" width="140" height="70" as="geometry" />
        </mxCell>
        <mxCell id="sPh4NylILdrR-eP8HBFg-4" value="&lt;div&gt;Kreiranje partije&lt;/div&gt;" style="ellipse;whiteSpace=wrap;html=1;" vertex="1" parent="1">
          <mxGeometry x="340" y="310" width="140" height="70" as="geometry" />
        </mxCell>
        <mxCell id="sPh4NylILdrR-eP8HBFg-5" value="&lt;div&gt;Pridruzivanje partiji&lt;/div&gt;" style="ellipse;whiteSpace=wrap;html=1;" vertex="1" parent="1">
          <mxGeometry x="550" y="320" width="140" height="70" as="geometry" />
        </mxCell>
        <mxCell id="sPh4NylILdrR-eP8HBFg-6" value="&amp;lt;&amp;lt;include&amp;gt;&amp;gt;" style="endArrow=open;endSize=12;dashed=1;html=1;rounded=0;exitX=1;exitY=0.286;exitDx=0;exitDy=0;exitPerimeter=0;entryX=0.021;entryY=0.286;entryDx=0;entryDy=0;entryPerimeter=0;" edge="1" parent="1">
          <mxGeometry width="160" relative="1" as="geometry">
            <mxPoint x="280" y="159.99999999999997" as="sourcePoint" />
            <mxPoint x="427.94000000000005" y="160.01999999999998" as="targetPoint" />
          </mxGeometry>
        </mxCell>
        <mxCell id="sPh4NylILdrR-eP8HBFg-17" value="" style="endArrow=block;endSize=16;endFill=0;html=1;rounded=0;entryX=0.5;entryY=1;entryDx=0;entryDy=0;edgeStyle=orthogonalEdgeStyle;exitX=0.5;exitY=0;exitDx=0;exitDy=0;elbow=vertical;" edge="1" parent="1" source="sPh4NylILdrR-eP8HBFg-4" target="sPh4NylILdrR-eP8HBFg-3">
          <mxGeometry width="160" relative="1" as="geometry">
            <mxPoint x="495" y="270" as="sourcePoint" />
            <mxPoint x="505" y="220" as="targetPoint" />
            <Array as="points">
              <mxPoint x="495" y="280" />
            </Array>
          </mxGeometry>
        </mxCell>
        <mxCell id="sPh4NylILdrR-eP8HBFg-19" value="" style="endArrow=none;html=1;rounded=0;edgeStyle=orthogonalEdgeStyle;entryX=0.421;entryY=0.029;entryDx=0;entryDy=0;entryPerimeter=0;" edge="1" parent="1" target="sPh4NylILdrR-eP8HBFg-5">
          <mxGeometry width="50" height="50" relative="1" as="geometry">
            <mxPoint x="490" y="280" as="sourcePoint" />
            <mxPoint x="640" y="280" as="targetPoint" />
          </mxGeometry>
        </mxCell>
        <mxCell id="sPh4NylILdrR-eP8HBFg-26" value="" style="swimlane;startSize=0;fontStyle=0" vertex="1" parent="1">
          <mxGeometry x="120" y="40" width="600" height="560" as="geometry" />
        </mxCell>
        <mxCell id="sPh4NylILdrR-eP8HBFg-34" value="&lt;b style=&quot;font-size: 13px;&quot;&gt;Aplikacija &quot;Ne ljuti se covece&quot;&lt;/b&gt;" style="text;html=1;align=center;verticalAlign=middle;resizable=0;points=[];autosize=1;strokeColor=none;fillColor=none;fontSize=13;" vertex="1" parent="sPh4NylILdrR-eP8HBFg-26">
          <mxGeometry x="185" width="210" height="30" as="geometry" />
        </mxCell>
        <mxCell id="sPh4NylILdrR-eP8HBFg-35" value="Prikaz pravila igre" style="ellipse;whiteSpace=wrap;html=1;" vertex="1" parent="sPh4NylILdrR-eP8HBFg-26">
          <mxGeometry x="40" y="300" width="140" height="70" as="geometry" />
        </mxCell>
        <mxCell id="sPh4NylILdrR-eP8HBFg-40" value="Konfigurisanje igre" style="ellipse;whiteSpace=wrap;html=1;" vertex="1" parent="sPh4NylILdrR-eP8HBFg-26">
          <mxGeometry x="320" y="400" width="140" height="70" as="geometry" />
        </mxCell>
        <mxCell id="sPh4NylILdrR-eP8HBFg-43" value="Prikazivanje pobednika" style="ellipse;whiteSpace=wrap;html=1;" vertex="1" parent="sPh4NylILdrR-eP8HBFg-26">
          <mxGeometry x="40" y="450" width="140" height="70" as="geometry" />
        </mxCell>
        <mxCell id="sPh4NylILdrR-eP8HBFg-45" value="" style="endArrow=none;html=1;rounded=0;entryX=0.271;entryY=0.071;entryDx=0;entryDy=0;entryPerimeter=0;" edge="1" parent="sPh4NylILdrR-eP8HBFg-26" target="sPh4NylILdrR-eP8HBFg-43">
          <mxGeometry width="50" height="50" relative="1" as="geometry">
            <mxPoint x="-40" y="290" as="sourcePoint" />
            <mxPoint x="240" y="520" as="targetPoint" />
          </mxGeometry>
        </mxCell>
        <mxCell id="sPh4NylILdrR-eP8HBFg-2" value="&lt;div&gt;Igranje jedne partije&lt;/div&gt;" style="ellipse;whiteSpace=wrap;html=1;" vertex="1" parent="sPh4NylILdrR-eP8HBFg-26">
          <mxGeometry x="40" y="90" width="140" height="70" as="geometry" />
        </mxCell>
        <mxCell id="sPh4NylILdrR-eP8HBFg-27" value="" style="endArrow=none;html=1;rounded=0;entryX=0.264;entryY=0.957;entryDx=0;entryDy=0;entryPerimeter=0;" edge="1" parent="1" target="sPh4NylILdrR-eP8HBFg-2">
          <mxGeometry width="50" height="50" relative="1" as="geometry">
            <mxPoint x="80" y="290" as="sourcePoint" />
            <mxPoint x="130" y="240" as="targetPoint" />
          </mxGeometry>
        </mxCell>
        <mxCell id="sPh4NylILdrR-eP8HBFg-30" value="&lt;div&gt;Server&lt;/div&gt;" style="shape=umlActor;verticalLabelPosition=bottom;verticalAlign=top;html=1;outlineConnect=0;" vertex="1" parent="1">
          <mxGeometry x="750" y="252" width="50" height="110" as="geometry" />
        </mxCell>
        <mxCell id="sPh4NylILdrR-eP8HBFg-39" value="" style="endArrow=none;html=1;rounded=0;entryX=0.5;entryY=0;entryDx=0;entryDy=0;" edge="1" parent="1" target="sPh4NylILdrR-eP8HBFg-35">
          <mxGeometry width="50" height="50" relative="1" as="geometry">
            <mxPoint x="80" y="310" as="sourcePoint" />
            <mxPoint x="460" y="380" as="targetPoint" />
          </mxGeometry>
        </mxCell>
        <mxCell id="sPh4NylILdrR-eP8HBFg-41" value="Extends" style="endArrow=block;endSize=16;endFill=0;html=1;rounded=0;exitX=0.45;exitY=-0.014;exitDx=0;exitDy=0;exitPerimeter=0;" edge="1" parent="1" source="sPh4NylILdrR-eP8HBFg-40" target="sPh4NylILdrR-eP8HBFg-4">
          <mxGeometry x="-0.1261" y="7" width="160" relative="1" as="geometry">
            <mxPoint x="360" y="400" as="sourcePoint" />
            <mxPoint x="520" y="400" as="targetPoint" />
            <Array as="points">
              <mxPoint x="470" y="410" />
            </Array>
            <mxPoint as="offset" />
          </mxGeometry>
        </mxCell>
        <mxCell id="sPh4NylILdrR-eP8HBFg-42" value="" style="endArrow=none;html=1;rounded=0;entryX=0.993;entryY=0.743;entryDx=0;entryDy=0;entryPerimeter=0;" edge="1" parent="1" source="sPh4NylILdrR-eP8HBFg-30" target="sPh4NylILdrR-eP8HBFg-3">
          <mxGeometry width="50" height="50" relative="1" as="geometry">
            <mxPoint x="410" y="430" as="sourcePoint" />
            <mxPoint x="460" y="380" as="targetPoint" />
          </mxGeometry>
        </mxCell>
        <mxCell id="sPh4NylILdrR-eP8HBFg-46" style="edgeStyle=orthogonalEdgeStyle;rounded=0;orthogonalLoop=1;jettySize=auto;html=1;exitX=0.5;exitY=1;exitDx=0;exitDy=0;" edge="1" parent="1" source="sPh4NylILdrR-eP8HBFg-26" target="sPh4NylILdrR-eP8HBFg-26">
          <mxGeometry relative="1" as="geometry" />
        </mxCell>
      </root>
    </mxGraphModel>
  </diagram>
</mxfile>
